Place,WeightClassKg,Division,Name,Sex,Equipment,Event,Age,BodyweightKg,State,Best3SquatKg,Best3BenchKg,Best3DeadliftKg,TotalKg,AgeRange
1,60,Teenage 13-15,Hannah Walker,F,Wraps,SBD,14,59.24,NC,77.11,38.56,95.25,210.92,
1,100,Teenage 16-17,Jessica Garner,F,Wraps,SBD,16,98.25,TN,81.65,54.43,122.47,258.55,
1,60,Juniors,Jaclyn Wolfe,F,Wraps,SBD,20,59.06,KY,120.2,58.97,165.56,344.73,
2,75,Juniors,Leslie Williams,F,Wraps,SBD,23,74.2,VA,122.47,68.04,136.08,326.59,
1,75,Juniors,Caitlin Manuel,F,Wraps,SBD,23,71.12,VA,115.67,74.84,142.88,333.39,
3,75,Juniors,Kellie Orewiler,F,Wraps,SBD,22,74.84,NC,124.74,65.77,129.27,319.78,
1,48,Open,Shana Miller,F,Wraps,SBD,25,47.36,KY,136.08,90.72,149.69,376.48,
1,60,Open,Caitlyn Trout,F,Wraps,SBD,25,58.6,KY,183.7,92.99,185.97,462.66,
2,60,Open,Allie Holland,F,Wraps,SBD,27,59.96,TN,79.38,43.09,97.52,219.99,
1,67.5,Open,Leslie Moellenkamp,F,Wraps,SBD,30,65.95,TN,102.06,74.84,140.61,317.51,
1,75,Open,Jennifer Davis,F,Wraps,SBD,34,74.07,TN,124.74,70.31,136.08,331.12,
1,82.5,Open,Susan Ottey,F,Wraps,SBD,23,82.1,VA,140.61,79.38,170.1,390.09,
1,100,Open,Ansley Huffman,F,Wraps,SBD,26,96.62,SC,204.12,102.06,213.19,519.36,
1,90+,Open,Samantha DiBois,F,Wraps,SBD,34,158.21,GA,226.8,140.61,229.06,596.47,
1,90,Submasters,Shelly Yates,F,Wraps,SBD,39,88.18,NC,124.74,63.5,147.42,335.66,
1,52,Masters 40-44,Melissa Byrd Smith,F,Wraps,SBD,40,52,NC,58.97,27.22,83.91,170.1,
1,56,Masters 40-44,Brandy Holloman,F,Wraps,SBD,40,54.7,KY,102.06,65.77,127.01,294.84,
1,90,Teenage 13-15,Grant Brace,M,Wraps,SBD,14,87.45,TN,176.9,113.4,204.12,494.42,
1,67.5,Teenage 18-19,Robert McCarty,M,Wraps,SBD,18,65.5,TN,111.13,70.31,174.63,356.07,
1,125,Teenage 18-19,Matt Brooks,M,Wraps,SBD,18,121.56,TN,201.85,124.74,210.92,537.51,
4,90,Juniors,Alexander Weismantel,M,Wraps,SBD,22,85.46,VA,145.15,102.06,204.12,451.32,
3,90,Juniors,Will Daniels,M,Wraps,SBD,20,83.55,KY,129.27,108.86,215.46,453.59,
2,90,Juniors,Matthew Ownby,M,Wraps,SBD,21,89.18,NC,174.63,133.81,210.92,519.36,
1,90,Juniors,Joey Ladnier,M,Wraps,SBD,,89.36,MS,272.16,154.22,272.16,698.53,
1,60,Open,Luke Starnes,M,Wraps,SBD,25,58.97,OH,208.65,142.88,226.8,578.33,
1,75,Open,Jonathan Booher,M,Wraps,SBD,28,74.39,TN,151.95,106.59,206.38,464.93,
1,82.5,Open,Hap Brecht,M,Wraps,SBD,26,81.37,NC,197.31,131.54,226.8,555.65,
1,90,Open,Brandon McBee,M,Wraps,SBD,,88.18,OH,204.12,149.69,242.67,596.47,
2,90,Open,Seth Carter,M,Wraps,SBD,23,89.18,TN,183.7,111.13,192.78,487.61,
6,100,Open,James Pinay,M,Wraps,SBD,25,91.35,GA,199.58,158.76,249.48,607.81,
4,100,Open,Brandon Snowder,M,Wraps,SBD,26,96.25,NC,256.28,197.31,251.74,705.34,
5,100,Open,Chris Armstrong,M,Wraps,SBD,23,92.26,TN,208.65,167.83,251.74,628.23,
2,100,Open,Brandon Franklin,M,Wraps,SBD,26,99.25,WV,335.66,188.24,294.84,818.73,
1,100,Open,Justin Bethune,M,Wraps,SBD,27,98.61,GA,328.85,204.12,328.85,861.83,
3,100,Open,Hunter McCleskey,M,Wraps,SBD,26,98.16,GA,276.69,217.72,272.16,766.57,
1,118,Open,Randy Morelli,M,Wraps,SBD,50,115.94,NC,251.74,151.95,297.1,700.8,
1,125,Open,Ryan Sams,M,Wraps,SBD,26,122.47,KY,326.59,231.33,331.12,889.04,
1,140,Open,Justin Barnes,M,Wraps,SBD,29,138.53,GA,249.48,210.92,294.84,755.23,
1,140+,Open,Josh Morris #1,M,Raw,SBD,25,187.97,KY,385.55,290.3,367.41,1043.26,
1,100,Police and Fire,Andy Julian,M,Wraps,SBD,27,99.79,TN,283.5,158.76,267.62,709.87,
2,100,Police and Fire,Brandon Lewis,M,Wraps,SBD,25,99.79,NC,231.33,158.76,251.74,641.83,
1,140,Police and Fire,Jared Griffith,M,Wraps,SBD,28,128.19,SC,272.16,185.97,290.3,748.43,
1,82.5,Submasters,Brian Welch,M,Wraps,SBD,37,80.47,NC,188.24,117.93,238.14,544.31,
1,100,Submasters,Jason Spraker,M,Wraps,SBD,35,100,TN,251.74,176.9,285.76,714.41,
1,118,Submasters,Mick Loyd,M,Wraps,SBD,39,114.03,TN,115.67,106.59,151.95,374.21,
1,125,Submasters,Jim Overbay,M,Wraps,SBD,35,121.93,VA,240.4,174.63,213.19,628.23,
1,140+,Submasters,Shawn Hester,M,Wraps,SBD,37,148.51,SC,317.51,222.26,254.01,793.79,
1,90,Masters 40-44,John Rowland,M,Wraps,SBD,43,88.27,GA,274.42,181.44,285.76,741.62,
1,140,Masters 40-44,Jeff Clabo,M,Wraps,SBD,40,136.62,TN,258.55,158.76,242.67,659.98,
1,110,Masters 45-49,Terry Mitchell,M,Wraps,SBD,48,104.42,VA,181.44,138.35,188.24,508.02,
1,125,Masters 50-54,Joe Ladnier,M,Wraps,SBD,50,122.92,MS,319.78,254.01,306.17,879.97,
1,90,Masters 60-64,Bruce Sulta,M,Wraps,SBD,61,84.37,NC,185.97,90.72,195.04,471.74,
1,67.5,Submasters,Leah Russell,F,Single-ply,SBD,36,65.41,GA,136.08,81.65,149.69,367.41,
1,75,Open,Sara Masters,F,Single-ply,SBD,31,68.31,TN,138.35,99.79,154.22,392.36,
1,75,Open,Jose Porres,M,Multi-ply,SBD,26,72.8,TN,106.59,108.86,183.7,399.16,
1,90,Open,Don Millrany,M,Multi-ply,SBD,36,88.68,TN,342.46,208.65,283.5,834.61,
1,110,Open,Bo Ward,M,Multi-ply,SBD,39,107.95,TN,272.16,174.63,278.96,725.75,
1,118,Open,Client Key,M,Multi-ply,SBD,27,114.76,TN,274.42,240.4,274.42,789.25,
1,82.5,Submasters,Mike Cotner,M,Multi-ply,SBD,33,77.56,TN,317.51,226.8,283.5,827.81,
1,100,Masters 45-49,Brent Tracey,M,Multi-ply,SBD,,90.72,TN,362.87,231.33,290.3,884.51,
1,75,Teenage 13-15,Katelyn Smith,F,Raw,BD,,72.85,NC,,34.02,108.86,142.88,
1,67.5,Open,Michelle Nunn,F,Raw,BD,,66.95,SC,,68.04,147.42,215.46,
1,90,Juniors,Jesse Conner,M,Raw,BD,22,84.46,NC,,124.74,183.7,308.44,
1,90,Masters 55-59,Tom Kulaga,M,Raw,BD,59,88.36,TN,,102.06,147.42,249.48,
1,100,Masters 60-64,William Griffith,M,Raw,BD,64,94.98,,,90.72,131.54,222.26,
1,100,Submasters,Derrick Nunn,M,Raw,BD,34,97.7,SC,,183.7,242.67,426.38,
1,118,Teenage 18-19,Damian Wright,M,Raw,BD,18,112.85,NC,,131.54,215.46,347,
DQ,90,Juniors,Jesse Conner,M,Raw,B,22,84.46,NC,,,,,
1,67.5,Open,Stephanie Braz,F,Raw,B,24,67,TN,,47.63,,47.63,
1,82.5,Juniors,Landis Johnson,M,Raw,B,23,81.74,TN,,176.9,,176.9,
2,82.5,Juniors,Robb Kaminsky,M,Raw,B,23,79.56,TN,,106.59,,106.59,
1,100,Open,Anthony Evans,M,Raw,B,30,95.98,GA,,226.8,,226.8,
1,90+,Submasters,Mandy Keefer,F,Raw,B,39,120.84,TN,,113.4,,113.4,
1,82.5,Masters 40-44,David Russell,M,Raw,B,44,79.33,TN,,151.95,,151.95,
1,100,Masters 40-44,Todd Morgan,M,Raw,B,44,98.43,TN,,204.12,,204.12,
1,110,Grand-Masters,Eugene Jones,M,Raw,B,86,104.14,VA,,74.84,,74.84,85-89
1,90+,Open,Samantha DiBois,F,Raw,B,34,158.21,GA,,140.61,,140.61,
1,140,Open,Adam Lathem,M,Multi-ply,B,37,139.62,GA,,258.55,,258.55,
1,100,Submasters,Tim Hudgins,M,Multi-ply,B,38,97.16,NC,,210.92,,210.92,
1,44,Pre-Teen,John Rowland Jr,M,Raw,D,9,31.3,GA,,,54.43,54.43,
1,56,Teenage 16-17,Zachry Wright,M,Raw,D,16,55.34,NC,,,104.33,104.33,
1,100,Police and Fire,Brandon Lewis,M,Raw,D,25,99.79,NC,,,251.74,251.74,
1,100,Police and Fire,Brandon Lewis,M,Wraps,S,25,99.79,NC,231.33,,,231.33,
1,82.5,Teenage 16-17,Sophia Peterson,F,Wraps,SBD,16,82.1,TN,108.86,49.9,129.27,288.03,
1,52,Open,Annie Tallent,F,Wraps,SBD,35,51.35,NC,95.25,52.16,124.74,272.16,
1,75,Masters 40-44,Melissa Brown,F,Wraps,SBD,41,74.39,TN,145.15,63.5,154.22,362.87,
1,90+,Open,Morgynn Horton,F,Wraps,SBD,31,116.57,TN,106.59,81.65,147.42,335.66,
1,82.5,Juniors,Cody Barrett,M,Wraps,SBD,22,78.11,TN,195.04,142.88,222.26,560.19,
1,75,Open,Chris Fry,M,Wraps,SBD,24,72.57,TN,165.56,147.42,204.12,517.1,
1,100,Open,Jason Davis,M,Wraps,SBD,35,95.16,TN,303.91,181.44,299.37,784.71,
2,100,Open,Jordan Barrett,M,Wraps,SBD,24,97.16,TN,256.28,167.83,288.03,712.14,
1,118,Open,Drew Dempsey,M,Wraps,SBD,29,111.49,TN,192.78,147.42,249.48,589.67,
1,110,Open,David Muckel,M,Wraps,SBD,27,107.68,CO,188.24,161.03,274.42,623.69,
1,82.5,Open,Fabio Moser,M,Wraps,SBD,24,79.11,TN,154.22,104.33,226.8,485.34,
1,140,Open,Harmon Rickmon,M,Wraps,SBD,25,139.25,NC,385.55,233.6,317.51,936.67,
1,100,Teenage 18-19,Cortnee Odom,F,Single-ply,SBD,18,97.52,TN,142.88,81.65,154.22,378.75,
1,90,Open,Angela Adams,F,Single-ply,SBD,29,89.9,TN,190.51,136.08,185.97,512.56,
1,56,Open,Vickie Castor,F,Multi-ply,SBD,54,55.34,OH,136.08,88.45,142.88,367.41,
1,56,Masters 50-54,Vickie Castor,F,Multi-ply,SBD,54,55.34,OH,136.08,88.45,142.88,367.41,
1,67.5,Open,Vikki Traugot,F,Multi-ply,SBD,52,64.95,TN,195.04,151.95,199.58,546.58,
1,67.5,Masters 50-54,Vikki Traugot,F,Multi-ply,SBD,52,64.95,TN,195.04,151.95,199.58,546.58,
1,67.5,Teenage 18-19,Timothy Morris,M,Raw,BD,19,66.59,TN,,102.06,149.69,251.74,
1,140,Open,Seth Camp,M,Raw,BD,23,134.08,SC,,190.51,292.57,483.08,
1,82.5,Teenage 16-17,Samuel Brown,M,Raw,B,17,80.38,TN,,145.15,,145.15,
1,140+,Open,Claude Munpower,M,Raw,B,,148.05,TN,,226.8,,226.8,
1,110,Masters 50-54,Ken Hancock,M,Raw,B,54,106.68,TN,,158.76,,158.76,
1,100,Open,Brian Barger,M,Raw,B,45,95.98,TN,,176.9,,176.9,
1,90,Masters 65-69,James McCombie,M,Raw,B,67,88.99,TN,,127.01,,127.01,
1,118,Open,Gentry Hale,M,Raw,B,27,114.85,TN,,199.58,,199.58,
1,60,Open,Josh Price,M,Multi-ply,B,29,59.87,TN,,170.1,,170.1,
1,90,Masters 40-44,Wayne Stover,M,Multi-ply,B,41,87.63,TN,,158.76,,158.76,
1,125,Open,Matthew Linton,M,Multi-ply,B,33,123.38,SC,,190.51,,190.51,
