Name,Sex,BirthDate,Age,State,Equipment,Division,BodyweightKg,WeightClassKg,Squat1Kg,Squat2Kg,Squat3Kg,Squat4Kg,Best3SquatKg,Bench1Kg,Bench2Kg,Bench3Kg,Bench4Kg,Best3BenchKg,Deadlift1Kg,Deadlift2Kg,Deadlift3Kg,Deadlift4Kg,Best3DeadliftKg,TotalKg,Event,Team,Place
Colleen Hodge,F,1973-12-16,45,TN,Wraps,Masters 45-49,55.61,56,49.9,56.7,-61.23,,56.7,34.02,38.56,-43.09,,38.56,61.23,65.77,72.57,79.38,72.57,167.83,SBD,,1
Chasity Youngman,F,1973-03-13,46,TN,Wraps,Masters 45-49,96.25,90+,99.79,-111.13,-111.13,,99.79,52.16,56.7,-61.23,,56.7,106.59,113.4,122.47,,122.47,278.96,SBD,,1
Joyce Bowen,F,1954-02-10,65,TN,Wraps,Masters 65-69,55.16,56,-54.43,54.43,61.23,-65.77,61.23,27.22,29.48,31.75,-34.02,31.75,68.04,74.84,79.38,83.91,79.38,172.37,SBD,,1
Joyce Bowen,F,1954-02-10,65,TN,Wraps,Open,55.16,56,-54.43,54.43,61.23,-65.77,61.23,27.22,29.48,31.75,-34.02,31.75,68.04,74.84,79.38,83.91,79.38,172.37,SBD,,1
Colleen Hodge,F,1973-12-16,45,TN,Wraps,Open,55.61,56,49.9,56.7,-61.23,,56.7,34.02,38.56,-43.09,,38.56,61.23,65.77,72.57,79.38,72.57,167.83,SBD,,2
Marie Green,F,1993-04-22,26,TN,Wraps,Open,59.6,60,54.43,-63.5,-63.5,,54.43,40.82,49.9,-54.43,,49.9,61.23,65.77,-81.65,,65.77,170.1,SBD,,1
Lindsay Haynes,F,1983-08-26,36,TN,Wraps,Open,65.41,67.5,83.91,-90.72,-90.72,,83.91,43.09,47.63,-52.16,,47.63,124.74,131.54,-136.08,,131.54,263.08,SBD,,1
Erin Schrier,F,1985-11-18,33,TN,Wraps,Open,84.19,90,129.27,136.08,142.88,,142.88,72.57,-77.11,-77.11,,72.57,142.88,-149.69,-149.69,,142.88,358.34,SBD,,1
Chasity Youngman,F,1973-03-13,46,TN,Wraps,Open,96.25,90+,99.79,-111.13,-111.13,,99.79,52.16,56.7,-61.23,,56.7,106.59,113.4,122.47,,122.47,278.96,SBD,,1
Keri Shook,F,1985-01-30,34,TN,Wraps,Open,109.77,90+,-74.84,74.84,-90.72,,74.84,49.9,54.43,-56.7,,54.43,99.79,108.86,115.67,120.2,115.67,244.94,SBD,,2
Lindsay Haynes,F,1983-08-26,36,TN,Wraps,Submasters 33-39,65.41,67.5,83.91,-90.72,-90.72,,83.91,43.09,47.63,-52.16,,47.63,124.74,131.54,-136.08,,131.54,263.08,SBD,,1
Erin Schrier,F,1985-11-18,33,TN,Wraps,Submasters 33-39,84.19,90,129.27,136.08,142.88,,142.88,72.57,-77.11,-77.11,,72.57,142.88,-149.69,-149.69,,142.88,358.34,SBD,,1
Keri Shook,F,1985-01-30,34,TN,Wraps,Submasters 33-39,109.77,90+,-74.84,74.84,-90.72,,74.84,49.9,54.43,-56.7,,54.43,99.79,108.86,115.67,120.2,115.67,244.94,SBD,,1
Anna Rollins,F,2006-09-01,13,MS,Wraps,Teen 13-15,63.78,67.5,43.09,54.43,63.5,-65.77,63.5,27.22,31.75,-36.29,,31.75,61.23,70.31,79.38,,79.38,174.63,SBD,,1
Marie Green,F,1993-04-22,26,TN,Raw,Open,59.6,60,,,,,,40.82,49.9,-54.43,,49.9,61.23,65.77,-81.65,,65.77,115.67,BD,,1
Marie Green,F,1993-04-22,26,TN,Raw,Open,59.6,60,,,,,,40.82,49.9,-54.43,,49.9,,,,,,49.9,B,,1
Anna Foster,F,2002-03-22,17,MS,Multi-ply,Open,101.79,90+,,,,,,106.59,115.67,122.47,-129.27,122.47,,,,,,122.47,B,,1
Anna Foster,F,2002-03-22,17,MS,Multi-ply,Teen 16-17,101.79,90+,,,,,,106.59,115.67,122.47,-129.27,122.47,,,,,,122.47,B,,1
Paul Berkes,M,1978-12-03,40,TN,Wraps,Masters 40-44,120.02,125,-174.63,174.63,183.7,,183.7,106.59,115.67,-124.74,,115.67,192.78,206.38,-213.19,,206.38,505.76,SBD,,1
Alfred Rollins,M,1979-03-08,40,MS,Wraps,Masters 40-44,119.02,125,142.88,165.56,183.7,188.24,183.7,74.84,83.91,92.99,99.79,92.99,131.54,145.15,158.76,165.56,158.76,435.45,SBD,,2
Josh Sullivan,M,1979-06-08,40,MS,Wraps,Masters 40-44,133.63,140,188.24,210.92,231.33,,231.33,192.78,204.12,210.92,,210.92,249.48,272.16,-278.96,,272.16,714.41,SBD,,1
Douglas Meyer,M,1956-03-23,63,TN,Wraps,Masters 60-64,109.77,110,115.67,122.47,129.27,136.08,129.27,81.65,-90.72,-90.72,,81.65,124.74,131.54,138.35,,138.35,349.27,SBD,,1
Kolby Osbourne,M,1989-06-08,30,TN,Wraps,Open,99.34,100,142.88,154.22,165.56,,165.56,83.91,-95.25,95.25,,95.25,174.63,183.7,192.78,197.31,192.78,453.59,SBD,,1
Brandon Bruce,M,1986-12-29,32,MS,Wraps,Open,108.32,110,281.23,303.91,326.59,,326.59,190.51,208.65,219.99,,219.99,272.16,294.84,317.51,,317.51,864.09,SBD,,1
Mike Hill,M,1983-04-29,36,TN,Wraps,Open,106.87,110,219.99,229.06,235.87,240.4,235.87,149.69,158.76,-163.29,,158.76,226.8,240.4,249.48,254.01,249.48,644.1,SBD,Fusion,2
Douglas Meyer,M,1956-03-23,63,TN,Wraps,Open,109.77,110,115.67,122.47,129.27,136.08,129.27,81.65,-90.72,-90.72,,81.65,124.74,131.54,138.35,,138.35,349.27,SBD,,3
Terry Green,M,1993-05-15,26,TN,Wraps,Open,113.49,125,204.12,-224.53,224.53,,224.53,133.81,-142.88,-142.88,,133.81,213.19,226.8,-249.48,,226.8,585.13,SBD,,1
Paul Berkes,M,1978-12-03,40,TN,Wraps,Open,120.02,125,-174.63,174.63,183.7,,183.7,106.59,115.67,-124.74,,115.67,192.78,206.38,-213.19,,206.38,505.76,SBD,,2
Alfred Rollins,M,1979-03-08,40,MS,Wraps,Open,119.02,125,142.88,165.56,183.7,188.24,183.7,74.84,83.91,92.99,99.79,92.99,131.54,145.15,158.76,165.56,158.76,435.45,SBD,,3
Josh Sullivan,M,1979-06-08,40,MS,Wraps,Open,133.63,140,188.24,210.92,231.33,,231.33,192.78,204.12,210.92,,210.92,249.48,272.16,-278.96,,272.16,714.41,SBD,,1
David Bonilla,M,1997-01-27,22,MS,Wraps,Open,188.15,140+,183.7,-204.12,206.38,,206.38,102.06,111.13,-120.2,,111.13,204.12,215.46,-226.8,,215.46,532.97,SBD,,1
Mike Hill,M,1983-04-29,36,TN,Wraps,Submasters 33-39,106.87,110,219.99,229.06,235.87,240.4,235.87,149.69,158.76,-163.29,,158.76,226.8,240.4,249.48,254.01,249.48,644.1,SBD,Fusion,1
Nigel Bowen,M,1952-11-30,66,TN,Raw,Masters 65-69,73.21,75,,,,,,52.16,56.7,-61.23,,56.7,106.59,113.4,122.47,127.01,122.47,179.17,BD,,1
Mike Hill,M,1983-04-29,36,TN,Raw,Open,106.87,110,,,,,,149.69,158.76,-163.29,,158.76,226.8,240.4,249.48,254.01,249.48,408.23,BD,Fusion,1
Terry Green,M,1993-05-15,26,TN,Raw,Open,113.49,125,,,,,,133.81,-142.88,-142.88,,133.81,213.19,226.8,-249.48,,226.8,360.61,BD,,1
Mike Hill,M,1983-04-29,36,TN,Raw,Submasters 33-39,106.87,110,,,,,,149.69,158.76,-163.29,,158.76,226.8,240.4,249.48,254.01,249.48,408.23,BD,Fusion,1
Mason Stanphill,M,2007-08-07,12,MS,Raw,Youth,71.21,75,,,,,,27.22,34.02,38.56,,38.56,61.23,72.57,83.91,-86.18,83.91,122.47,BD,,1
Josh Sullivan,M,1979-06-08,40,ms,Raw,Masters 40-44,133.63,140,,,,,,102.06,111.13,,,111.13,,,,,,111.13,B,,1
Josh Sullivan,M,1979-06-08,40,MS,Raw,Masters 40-44,133.63,140,,,,,,49.9,61.23,72.57,,72.57,,,,,,72.57,B,,2
Lee Permenter,M,1965-11-18,53,MS,Raw,Masters 50-54,78.47,82.5,,,,,,111.13,120.2,-127.01,,120.2,,,,,,120.2,B,,1
Mitch Williams,M,1939-09-10,80,MS,Raw,Masters 80+,86.82,90,,,,,,74.84,79.38,81.65,,81.65,,,,,,81.65,B,,1
Terry Green,M,1993-05-15,26,TN,Raw,Open,113.49,125,,,,,,133.81,-142.88,-142.88,,133.81,,,,,,133.81,B,,1
Josh Sullivan,M,1979-06-08,40,MS,Raw,Open,133.63,140,,,,,,49.9,61.23,72.57,,72.57,,,,,,72.57,B,,1
Cordero Bobo,M,1986-07-25,33,MS,Raw,Open,143.79,140+,,,,,,192.78,197.31,201.85,,201.85,,,,,,201.85,B,,1
Weston Franks,M,2006-06-09,13,MS,Raw,Teen 13-15,87.09,90,,,,,,43.09,56.7,-58.97,,56.7,,,,,,56.7,B,,1
Dwayne Franks,M,1976-09-24,43,MS,Multi-ply,Masters 40-44,147.6,140+,,,,,,294.84,333.39,347,,347,,,,,,347,B,,1
Dwayne Franks,M,1976-09-24,43,MS,Multi-ply,Open,147.6,140+,,,,,,294.84,333.39,347,,347,,,,,,347,B,,1
