Place,Name,State,WeightClassKg,BodyweightKg,Age,Squat1Kg,Squat2Kg,Squat3Kg,Best3SquatKg,Bench1Kg,Bench2Kg,Bench3Kg,Best3BenchKg,Deadlift1Kg,Deadlift2Kg,Deadlift3Kg,Best3DeadliftKg,TotalKg,Event,Equipment,Sex,Division
1,Bailey Stettmeier,AR,67.5,64.7,21,132.5,145,147.5,147.5,67.5,72.5,75,75,155,167.5,175,175,397.5,SBD,Raw,F,Juniors 20-23
2,Madison Cocklin,TX,67.5,66.6,21,77.5,85,95,95,-42.5,45,50,50,85,92.5,100,100,245,SBD,Raw,F,Juniors 20-23
1,Rosario Maranon,TX,52,51.6,35,70,75,77.5,77.5,35,37.5,-40,37.5,102.5,107.5,-110,107.5,222.5,SBD,Raw,F,Open
1,Alyssa Bravo,TX,56,53,23,92.5,97.5,102.5,102.5,42.5,-50,-50,42.5,100,-107.5,107.5,107.5,252.5,SBD,Raw,F,Open
1,Amanda Bowker,TX,60,59.3,28,140,147.5,-152.5,147.5,65,70,75,75,-152.5,160,-165,160,382.5,SBD,Raw,F,Open
2,Nicole Miller,TX,60,58,36,-120,-120,120,120,72.5,-75,-75,72.5,135,140,142.5,142.5,335,SBD,Raw,F,Open
3,Denicia Miller,TX,60,59.5,28,102.5,110,-115,110,45,55,57.5,57.5,115,127.5,140,140,307.5,SBD,Raw,F,Open
1,Caitlyn Buck,TX,67.5,66.5,25,125,135,140,140,80,85,-87.5,85,170,182.5,-187.5,182.5,407.5,SBD,Raw,F,Open
2,Rocio Arce,TX,67.5,66.5,38,137.5,145,152.5,152.5,75,80,85,85,150,157.5,167.5,167.5,405,SBD,Raw,F,Open
3,Kat Dooley,TX,67.5,62.7,34,135,137.5,,137.5,77.5,82.5,,82.5,160,177.5,-187.5,177.5,397.5,SBD,Raw,F,Open
4,Bailey Stettmeier,AR,67.5,64.7,21,132.5,145,147.5,147.5,67.5,72.5,75,75,155,167.5,175,175,397.5,SBD,Raw,F,Open
5,Alecia Lanuto,TX,67.5,67,27,122.5,130,137.5,137.5,70,72.5,77.5,77.5,-152.5,155,160,160,375,SBD,Raw,F,Open
6,Kelly Osborne,TX,67.5,66.4,30,117.5,130,-137.5,130,60,65,70,70,142.5,160,172.5,172.5,372.5,SBD,Raw,F,Open
7,Rhonda Biggs,TX,67.5,66.1,29,125,130,-137.5,130,65,67.5,-75,67.5,142.5,150,157.5,157.5,355,SBD,Raw,F,Open
8,Alyson Flint,TX,67.5,66.9,29,120,127.5,137.5,137.5,62.5,65,-67.5,65,125,140,145,145,347.5,SBD,Raw,F,Open
9,Hemali Virani,TX,67.5,65.9,29,-87.5,90,92.5,92.5,40,-42.5,-42.5,40,120,127.5,-132.5,127.5,260,SBD,Raw,F,Open
1,Nancy Honeysuckle,TX,75,73.8,30,-160,160,162.5,162.5,80,-85,-85,80,165,-170,-170,165,407.5,SBD,Raw,F,Open
2,Sally Guerrero,TX,75,73.3,35,-120,-120,120,120,52.5,60,65,65,145,155,165,165,350,SBD,Raw,F,Open
1,Cindy Velazquez,TX,82.5,75.8,30,115,120,130,130,67.5,72.5,-75,72.5,117.5,125,137.5,137.5,340,SBD,Raw,F,Open
2,Samantha Fernandez,TX,82.5,76.3,31,85,92.5,97.5,97.5,50,55,60,60,122.5,130,137.5,137.5,295,SBD,Raw,F,Open
1,Shannon Dempsey,TX,90,86.6,28,122.5,132.5,-140,132.5,62.5,67.5,-70,67.5,140,150,157.5,157.5,357.5,SBD,Raw,F,Open
1,Gaberiella Robinson,TX,90+,94.4,27,175,192.5,-205,192.5,82.5,92.5,97.5,97.5,162.5,187.5,195,195,485,SBD,Raw,F,Open
2,Jessica Howard,TX,90+,119.1,25,152.5,165,175,175,85,92.5,-102.5,92.5,175,187.5,195,195,462.5,SBD,Raw,F,Open
1,Sujal Sisodiya,TX,56,55.7,36,92.5,97.5,102.5,102.5,50,52.5,55,55,117.5,125,-132.5,125,282.5,SBD,Raw,F,Submasters 35-39
1,Nicole Miller,TX,60,58,36,-120,-120,120,120,72.5,-75,-75,72.5,135,140,142.5,142.5,335,SBD,Raw,F,Submasters 35-39
1,Sally Guerrero,TX,75,73.3,35,-120,-120,120,120,52.5,60,65,65,145,155,165,165,350,SBD,Raw,F,Submasters 35-39
1,Allison Baker,TX,82.5,75.6,35,120,130,137.5,137.5,52.5,57.5,-62.5,57.5,120,130,140,140,335,SBD,Raw,F,Submasters 35-39
1,Sonya Hunt,TX,75,72.3,51,-110,117.5,-130,117.5,55,60,-67.5,60,117.5,127.5,-137.5,127.5,305,SBD,Raw,F,Masters 50-54
1,Tressa Story,TX,75,73.9,64,45,-55,-65,45,35,37.5,-40,37.5,62.5,72.5,85,85,167.5,SBD,Raw,F,Masters 60-64
1,Ulises Garcia,TX,67.5,67.2,16,130,135,145,145,72.5,77.5,82.5,82.5,172.5,182.5,200,200,427.5,SBD,Raw,M,Juniors 16-17
1,Milton Pleitez,TX,75,72.1,20,142.5,157.5,162.5,162.5,105,112.5,-117.5,112.5,195,205,212.5,212.5,487.5,SBD,Raw,M,Juniors 20-23
1,Calvin Barker,TX,110,105.4,22,150,172.5,182.5,182.5,90,100,-105,100,195,220,227.5,227.5,510,SBD,Raw,M,Juniors 20-23
1,Cristian Gallegos,TX,75,72.8,21,182.5,195,202.5,202.5,125,130,-135,130,-215,220,227.5,227.5,560,SBD,Raw,M,Open
2,Dillon Maroney,TX,75,74.2,32,165,175,-182.5,175,117.5,-125,-125,117.5,212.5,220,-230,220,512.5,SBD,Raw,M,Open
1,Cody Ortiz,TX,82.5,79.2,24,202.5,212.5,225,225,127.5,132.5,-135,132.5,212.5,220,230,230,587.5,SBD,Raw,M,Open
2,Chris Cipriani,TX,82.5,81.1,24,182.5,202.5,-205,202.5,125,132.5,-137.5,132.5,227.5,247.5,-252.5,247.5,582.5,SBD,Raw,M,Open
1,Tyler Oliver,TX,90,88.9,23,242.5,257.5,265,265,155,160,170,170,287.5,307.5,315,315,750,SBD,Raw,M,Open
2,Marquel Sims,TX,90,87.7,32,202.5,225,232.5,232.5,167.5,190,-192.5,190,250,272.5,-280,272.5,695,SBD,Raw,M,Open
3,Chris Rico,TX,90,88.9,29,192.5,200,205,205,132.5,140,-147.5,140,-205,215,227.5,227.5,572.5,SBD,Raw,M,Open
4,Stewart Fetzik,TX,90,87.4,26,125,135,-147.5,135,112.5,117.5,-122.5,117.5,227.5,235,242.5,242.5,495,SBD,Raw,M,Open
5,Khai Tran-Jones,TX,90,89.3,24,150,165,172.5,172.5,110,-115,115,115,165,175,182.5,182.5,470,SBD,Raw,M,Open
1,Jeremi Villarreal,TX,100,96.2,38,252.5,267.5,-272.5,267.5,187.5,192.5,197.5,197.5,272.5,287.5,,287.5,752.5,SBD,Raw,M,Open
2,Jeris Tillman,TX,100,99.1,36,250,265,275,275,170,175,182.5,182.5,272.5,-287.5,287.5,287.5,745,SBD,Raw,M,Open
3,Sam Dollahite,TX,100,98.6,28,237.5,250,265,265,165,-175,175,175,267.5,277.5,-287.5,277.5,717.5,SBD,Raw,M,Open
4,Chris Gonzales,TX,100,96.7,29,207.5,222.5,227.5,227.5,127.5,137.5,145,145,257.5,272.5,277.5,277.5,650,SBD,Raw,M,Open
5,Shawn Waters,TX,100,97.3,28,212.5,215,232.5,232.5,167.5,177.5,-185,177.5,197.5,205,-207.5,205,615,SBD,Raw,M,Open
6,Isac Cardenas,TX,100,94.1,27,195,207.5,220,220,135,-142.5,142.5,142.5,215,235,245,245,607.5,SBD,Raw,M,Open
7,Jacob Young,TX,100,99.8,25,182.5,-192.5,197.5,197.5,-122.5,122.5,,122.5,-237.5,-237.5,237.5,237.5,557.5,SBD,Raw,M,Open
8,Gregory Flores,TX,100,97.1,31,140,145,152.5,152.5,125,-130,,125,175,182.5,,182.5,460,SBD,Raw,M,Open
1,Lamar Holmes,LA,110,107.7,28,265,272.5,277.5,277.5,167.5,172.5,177.5,177.5,-267.5,275,-282.5,275,730,SBD,Raw,M,Open
2,Calvin Barker,TX,110,105.4,22,150,172.5,182.5,182.5,90,100,-105,100,195,220,227.5,227.5,510,SBD,Raw,M,Open
1,Eric Cothrum,TX,125,123.2,29,310,322.5,327.5,327.5,217.5,230,,230,310,325,-330,325,882.5,SBD,Raw,M,Open
2,John Roberts,TX,125,120,30,-192.5,192.5,200,200,150,157.5,-167.5,157.5,262.5,272.5,285,285,642.5,SBD,Raw,M,Open
1,Andy Zamarripa,TX,140,125.8,27,190,200,210,210,135,142.5,-145,142.5,237.5,-252.5,252.5,252.5,605,SBD,Raw,M,Open
1,Frank Medina,FL,140+,148.5,30,252.5,270,295,295,167.5,182.5,197.5,197.5,272.5,305,322.5,322.5,815,SBD,Raw,M,Open
2,Pleasure Jackson,TX,140+,143,34,195,210,217.5,217.5,155,165,-172.5,165,225,240,-250,240,622.5,SBD,Raw,M,Open
1,Jeremy Ogeda,TX,90,85.9,39,180,190,-195,190,135,142.5,-150,142.5,190,200,207.5,207.5,540,SBD,Raw,M,Submasters 35-39
1,Jeremi Villarreal,TX,100,96.2,38,252.5,267.5,-272.5,267.5,187.5,192.5,197.5,197.5,272.5,287.5,,287.5,752.5,SBD,Raw,M,Submasters 35-39
2,Ruben Moodley,TX,100,97.8,37,215,227.5,237.5,237.5,162.5,170,-180,170,265,280,287.5,287.5,695,SBD,Raw,M,Submasters 35-39
3,Charles Godwin,TX,100,95.3,35,230,240,-247.5,240,140,150,160,160,277.5,-300,-317.5,277.5,677.5,SBD,Raw,M,Submasters 35-39
1,Jonathan Medina,MA,125,124.6,36,210,220,230,230,182.5,190,-195,190,240,260,-272.5,260,680,SBD,Raw,M,Submasters 35-39
1,Greg Corry,TX,82.5,77.3,48,165,175,-182.5,175,122.5,130,132.5,132.5,195,-210,-210,195,502.5,SBD,Raw,M,Masters 45-49
1,Jeremy Dragon,TX,100,96.6,45,197.5,-205,-205,197.5,160,165,167.5,167.5,205,215,,215,580,SBD,Raw,M,Masters 45-49
DQ,Tregory Jones,TX,100,99.9,46,-242.5,-242.5,,,,,,,,,,,,SBD,Raw,M,Masters 45-49
1,David McCartney,TX,125,124.6,41,250,-265,-265,250,160,-165,-165,160,272.5,285,-295,285,695,SBD,Raw,M,Masters 40-44
1,David Chilcutt,TX,140,136.4,42,262.5,272.5,-280,272.5,187.5,195,200,200,-290,290,295,295,767.5,SBD,Raw,M,Masters 40-44
1,Claudia Alfaro,TX,52,51.2,29,107.5,112.5,-117.5,112.5,57.5,60,62.5,62.5,127.5,135,-145,135,310,SBD,Wraps,F,Open
1,Jennifer Mahon,TX,75,73.5,38,90,-97.5,100,100,-55,-57.5,60,60,120,130,-140,130,290,SBD,Wraps,F,Submasters 35-39
1,Amber Cauley,TX,75,73.1,42,77.5,82.5,90,90,40,42.5,-50,42.5,87.5,95,102.5,102.5,235,SBD,Wraps,F,Masters 40-44
1,Manuel Martin,TX,75,72.9,32,120,137.5,145,145,85,92.5,97.5,97.5,162.5,182.5,192.5,192.5,435,SBD,Wraps,M,Open
1,Matthew Lyster,TX,100,99.6,32,190,205,215,215,-122.5,137.5,-145,137.5,182.5,202.5,220,220,572.5,SBD,Wraps,M,Open
2,Austin Thompson,TX,100,92,26,175,185,195,195,105,110,-112.5,110,207.5,217.5,227.5,227.5,532.5,SBD,Wraps,M,Open
1,Alan Gilbreath,TX,140+,143.4,38,290,310,322.5,322.5,230,-245,-245,230,285,300,-307.5,300,852.5,SBD,Wraps,M,Open
2,Brandon Morris,TX,140+,153.6,29,-257.5,265,275,275,165,175,182.5,182.5,252.5,260,-272.5,260,717.5,SBD,Wraps,M,Open
1,Sherri Schawo,TX,90+,97.2,57,,,,,85,90,95,95,,,,,95,B,Raw,F,Masters 55-59
1,Craig Haren,TX,75,74.4,27,,,,,110,117.5,122.5,122.5,,,,,122.5,B,Raw,M,Open
1,Stephen Heinmiller,TX,100,93.1,29,,,,,-167.5,177.5,-182.5,177.5,,,,,177.5,B,Raw,M,Open
1,Nicholas Cangelosi,TX,140+,176.5,30,,,,,177.5,185,-192.5,185,,,,,185,B,Raw,M,Open
DQ,Shawn Jordan,TX,100,98.1,37,,,,,-165,-170,-172.5,,,,,,,B,Raw,M,Submasters 35-39
1,Adam Parker,TX,110,108.5,40,,,,,220,227.5,-230,227.5,,,,,227.5,B,Raw,M,Masters 40-44
1,Chance Dean,TX,125,112.5,40,,,,,155,-165,165,165,,,,,165,B,Raw,M,Masters 40-44
1,Dave Hoggard,TX,125,115.6,48,,,,,160,-165,-165,160,,,,,160,B,Raw,M,Masters 45-49
1,Vanisha Black,TX,56,53.4,32,,,,,,,,,75,80,85,85,85,D,Raw,F,Open
1,Andrew Black,TX,82.5,80.9,31,,,,,,,,,175,185,-192.5,185,185,D,Raw,M,Open
1,Steven Horwitz,TX,82.5,76.3,59,,,,,,,,,215,-230,-230,215,215,D,Raw,M,Masters 55-59
1,Rita McBain,TX,48,45.7,27,,,,,55,57.5,60,60,100,107.5,110,110,170,BD,Raw,F,Open
1,Sarah Perkins,TX,90+,99.3,34,,,,,72.5,-75,75,75,137.5,147.5,150,150,225,BD,Raw,F,Open
1,Elizabeth Stinnett,TX,75,69.5,61,,,,,42.5,45,47.5,47.5,80,82.5,87.5,87.5,135,BD,Raw,F,Masters 60-64
