Place,Name,Sex,BirthDate,Country,Equipment,Division,BodyweightKg,WeightClassKg,Squat1Kg,Squat2Kg,Squat3Kg,Best3SquatKg,Bench1Kg,Bench2Kg,Bench3Kg,Best3BenchKg,Deadlift1Kg,Deadlift2Kg,Deadlift3Kg,Best3DeadliftKg,TotalKg,Event,Team
1,Aisling McManus,F,1984-04-07,Ireland,Raw,F-O,49.9,52,87.5,92.5,95,95,45,-47.5,47.5,47.5,90,95,97.5,97.5,240,SBD,ABS
2,Mary Grant,F,1969-05-22,Ireland,Raw,F-O,51.4,52,65,-67.5,70,70,35,40,-45,40,100,105,112.5,112.5,222.5,SBD,EST
1,Hazel Hu,F,1980-01-01,Ireland,Raw,F-O,54.6,57,120,125,130,130,75,77.5,80,80,152.5,157.5,162.5,162.5,372.5,SBD,
2,Emily Walsh,F,1994-03-02,Ireland,Raw,F-O,56.4,57,122.5,127.5,-132.5,127.5,67.5,70,-75,70,130,140,-147.5,140,337.5,SBD,ABS
3,Sarah Whelan,F,1995-11-28,Ireland,Raw,F-O,55.5,57,95,102.5,107.5,107.5,57.5,62.5,-65,62.5,117.5,122.5,-125,122.5,292.5,SBD,ABS
4,Megan Bennett,F,2000-05-13,Ireland,Raw,F-O,56,57,97.5,102.5,107.5,107.5,47.5,52.5,55,55,92.5,97.5,-102.5,97.5,260,SBD,FCF
1,Lota Leinberga,F,1999-01-25,Ireland,Raw,F-O,62.3,63,122.5,127.5,130,130,72.5,77.5,80,80,130,137.5,142.5,142.5,352.5,SBD,DPC
2,Catriona Fitzpatrick,F,1975-04-23,Ireland,Raw,F-O,62.8,63,105,115,117.5,117.5,62.5,67.5,-70,67.5,132.5,145,150,150,335,SBD,PFP
1,Hannah Stephenson,F,1990-02-22,Ireland,Raw,F-O,70.5,72,107.5,115,120,120,60,62.5,-65,62.5,140,147.5,155,155,337.5,SBD,
2,Caoimhe Ryan-Ireland,F,1998-08-25,Ireland,Raw,F-O,71.1,72,112.5,120,125,125,62.5,65,67.5,67.5,125,132.5,-137.5,132.5,325,SBD,ABS
3,Katie Clarke,F,1996-09-22,Ireland,Raw,F-O,70.2,72,115,120,125,125,47.5,50,52.5,52.5,120,130,140,140,317.5,SBD,
4,Shauna O'Boyle,F,1996-08-12,Ireland,Raw,F-O,66,72,107.5,112.5,-115,112.5,45,50,-52.5,50,120,130,137.5,137.5,300,SBD,
5,Méabh Nugent,F,1999-04-14,Ireland,Raw,F-O,69.3,72,85,90,95,95,50,55,-60,55,105,110,112.5,112.5,262.5,SBD,KAO
6,Andrea Doyle,F,1990-04-20,Ireland,Raw,F-O,69.3,72,75,77.5,82.5,82.5,37.5,40,-42.5,40,85,92.5,100,100,222.5,SBD,SBF
1,Tanzeeb Iqbal,M,1980-01-01,Ireland,Raw,M-O,52.8,59,90,100,107.5,107.5,60,65,70,70,-135,140,147.5,147.5,325,SBD,ABS
DQ,Roan McKeever,M,2000-08-22,Ireland,Raw,M-O,65,66,145,155,-160,155,-100,-105,-105,,180,187.5,190,190,,SBD,DCU
1,Lee Murphy,M,2001-11-19,Ireland,Raw,M-O,71.8,74,135,140,145,145,82.5,87.5,-90,87.5,150,157.5,165,165,397.5,SBD,FCF
2,Samuel Smith #2,M,1995-01-28,Ireland,Raw,M-O,67.3,74,-130,135,140,140,80,85,-90,85,155,162.5,170,170,395,SBD,ABS
1,Ross Dempsey,M,1980-01-01,Ireland,Raw,M-O,81.6,83,135,152.5,-167.5,152.5,90,100,-105,100,220,230,-235,230,482.5,SBD,
2,Liam Murray,M,1997-10-22,Ireland,Raw,M-O,75.9,83,165,172.5,-177.5,172.5,90,-95,95,95,195,200,205,205,472.5,SBD,LXP
3,Shane Smith,M,1994-05-05,Ireland,Raw,M-O,82.3,83,160,170,175,175,-95,100,-102.5,100,180,190,-200,190,465,SBD,SMF
4,Stephen Martin,M,1994-12-25,Ireland,Raw,M-O,81.3,83,115,122.5,132.5,132.5,90,92.5,95,95,150,165,175,175,402.5,SBD,SMF
1,Cian Madden,M,1995-11-30,Ireland,Raw,M-O,92.6,93,250,265,275,275,157.5,165,170,170,250,260,270,270,715,SBD,ABS
2,Ross Byrne,M,1998-06-24,Ireland,Raw,M-O,91.6,93,225,235,240,240,157.5,165,170,170,240,250,260,260,670,SBD,ABS
3,Martin Cummings,M,1985-04-18,Ireland,Raw,M-O,91,93,225,-235,235,235,147.5,-152.5,152.5,152.5,250,262.5,-270,262.5,650,SBD,CUS
4,Edward McGarry,M,1994-07-10,Ireland,Raw,M-O,88.9,93,165,185,192.5,192.5,135,145,-155,145,225,240,250,250,587.5,SBD,
5,Sam Loscher,M,2002-12-12,,Raw,M-O,88.3,93,190,200,207.5,207.5,132.5,137.5,-140,137.5,200,210,215,215,560,SBD,
6,Cathal McLoughlin,M,1996-06-06,Ireland,Raw,M-O,92.2,93,170,180,187.5,187.5,-117.5,125,-127.5,125,190,200,210,210,522.5,SBD,
7,Sean Mulholland,M,1994-10-29,Ireland,Raw,M-O,90.5,93,140,150,160,160,110,120,-122.5,120,185,200,-207.5,200,480,SBD,ABS
1,Barry Pigott,M,1991-11-13,Ireland,Raw,M-O,98.8,105,275,-287.5,287.5,287.5,215,222.5,225,225,295,302.5,310,310,822.5,SBD,ABS
2,Fionn Hanratty,M,1990-07-11,Ireland,Raw,M-O,103.5,105,265,-280,280,280,175,185,-195,185,280,295,-305,295,760,SBD,ABS
3,Jordan Voss,M,1998-05-23,Ireland,Raw,M-O,96,105,180,190,-200,190,107.5,112.5,-117.5,112.5,-215,-227.5,227.5,227.5,530,SBD,ODS
4,Eoin Dolan,M,1992-04-19,Ireland,Raw,M-O,104.8,105,140,150,-160,150,95,-102.5,102.5,102.5,160,170,180,180,432.5,SBD,ABS
1,Paul Hearne,M,1989-12-04,Ireland,Raw,M-O,118.3,120,185,195,-205,195,135,142.5,147.5,147.5,215,230,237.5,237.5,580,SBD,ABS
1,Peter Lavin,M,1990-07-11,Ireland,Raw,M-O,122.1,120+,-160,-170,170,170,127.5,132.5,-135,132.5,200,215,225,225,527.5,SBD,SLG
